DATA 698: Masters Research Project
…
#identify empty and NA values. 57 NA values in the county_fips column
colSums(elections == "" | is.na(elections))

##           year          state       state_po    county_name    county_fips 
##              0              0              0              0             57 
##         office      candidate          party candidatevotes     totalvotes 
##              0              0              0              0              0 
##        version           mode 
##              0              0

elections %>% 
  filter(is.na(county_fips))

## # A tibble: 57 x 12
##     year state        state_po county_name    county_fips office candidate party
##    <dbl> <chr>        <chr>    <chr>          <chr>       <chr>  <chr>     <chr>
##  1  2000 CONNECTICUT  CT       STATEWIDE WRI~ <NA>        US PR~ AL GORE   DEMO~
##  2  2000 MAINE        ME       MAINE UOCAVA   <NA>        US PR~ AL GORE   DEMO~
##  3  2000 RHODE ISLAND RI       FEDERAL PRECI~ <NA>        US PR~ AL GORE   DEMO~
##  4  2000 CONNECTICUT  CT       STATEWIDE WRI~ <NA>        US PR~ GEORGE W~ REPU~
##  5  2000 MAINE        ME       MAINE UOCAVA   <NA>        US PR~ GEORGE W~ REPU~
##  6  2000 RHODE ISLAND RI       FEDERAL PRECI~ <NA>        US PR~ GEORGE W~ REPU~
##  7  2000 CONNECTICUT  CT       STATEWIDE WRI~ <NA>        US PR~ RALPH NA~ GREEN
##  8  2000 MAINE        ME       MAINE UOCAVA   <NA>        US PR~ RALPH NA~ GREEN
##  9  2000 RHODE ISLAND RI       FEDERAL PRECI~ <NA>        US PR~ RALPH NA~ GREEN
## 10  2000 CONNECTICUT  CT       STATEWIDE WRI~ <NA>        US PR~ OTHER     OTHER
## # i 47 more rows
## # i 4 more variables: candidatevotes <dbl>, totalvotes <dbl>, version <dbl>,
## #   mode <chr>

elections %>% 
  filter(state_po=="DC")

## # A tibble: 21 x 12
##     year state           state_po county_name county_fips office candidate party
##    <dbl> <chr>           <chr>    <chr>       <chr>       <chr>  <chr>     <chr>
##  1  2000 DISTRICT OF CO~ DC       DISTRICT O~ 11001       US PR~ AL GORE   DEMO~
##  2  2000 DISTRICT OF CO~ DC       DISTRICT O~ 11001       US PR~ GEORGE W~ REPU~
##  3  2000 DISTRICT OF CO~ DC       DISTRICT O~ 11001       US PR~ RALPH NA~ GREEN
##  4  2000 DISTRICT OF CO~ DC       DISTRICT O~ 11001       US PR~ OTHER     OTHER
##  5  2004 DISTRICT OF CO~ DC       DISTRICT O~ 11001       US PR~ JOHN KER~ DEMO~
##  6  2004 DISTRICT OF CO~ DC       DISTRICT O~ 11001       US PR~ GEORGE W~ REPU~
##  7  2004 DISTRICT OF CO~ DC       DISTRICT O~ 11001       US PR~ OTHER     OTHER
##  8  2008 DISTRICT OF CO~ DC       DISTRICT O~ 11001       US PR~ BARACK O~ DEMO~
##  9  2008 DISTRICT OF CO~ DC       DISTRICT O~ 11001       US PR~ JOHN MCC~ REPU~
## 10  2008 DISTRICT OF CO~ DC       DISTRICT O~ 11001       US PR~ OTHER     OTHER
## # i 11 more rows
## # i 4 more variables: candidatevotes <dbl>, totalvotes <dbl>, version <dbl>,
## #   mode <chr>
…
cvap_df <- rbind(cvap2008, cvap2012, cvap2016, cvap2020) %>% 
  filter(lntitle == 'Total', !str_detect(geoname, "Puerto Rico")) %>% 
  mutate(FIPS = str_sub(geoid, -5)) %>% 
  select(c('year', 'FIPS', 'geoname', 'cvap_est'))

#identify empty and NA values
colSums(cvap_df == "" | is.na(cvap_df))

Merge with Election data

voting_info_df <- left_join(elections_pivot_df, cvap_df, by = c("FIPS", "year"))

voting_info_df

## # A tibble: 18,928 x 9
##     year FIPS  county_name state totalvotes votes_dem votes_gop geoname cvap_est
##    <dbl> <chr> <chr>       <chr>      <dbl>     <dbl>     <dbl> <chr>      <dbl>
##  1  2000 01001 AUTAUGA     ALAB~      17208      4942     11993 <NA>          NA
##  2  2008 01001 AUTAUGA     ALAB~      23641      6093     17403 Autaug~    38010
##  3  2012 01001 AUTAUGA     ALAB~      23932      6363     17379 Autaug~    40545
##  4  2020 01001 AUTAUGA     ALAB~      27770      7503     19838 Autaug~    43905
##  5  2016 01001 AUTAUGA     ALAB~      24973      5936     18172 Autaug~    41305
##  6  2004 01001 AUTAUGA     ALAB~      20081      4758     15196 <NA>          NA
##  7  2000 01003 BALDWIN     ALAB~      56480     13997     40872 <NA>          NA
##  8  2008 01003 BALDWIN     ALAB~      81413     19386     61271 Baldwi~   130865
##  9  2012 01003 BALDWIN     ALAB~      85338     18424     66016 Baldwi~   144120
## 10  2020 01003 BALDWIN     ALAB~     109679     24578     83544 Baldwi~   174685
## # i 18,918 more rows

#identify empty and NA values
colSums(voting_info_df == "" | is.na(voting_info_df))

##        year        FIPS county_name       state  totalvotes   votes_dem 
##           0           0           0           0           0           0 
##   votes_gop     geoname    cvap_est 
##           0        6467        6467

voting_info_df_NAs <- voting_info_df %>% 
  filter(is.na(geoname), is.na(cvap_est))

voting_info_df_NAs

## # A tibble: 6,467 x 9
##     year FIPS  county_name state totalvotes votes_dem votes_gop geoname cvap_est
##    <dbl> <chr> <chr>       <chr>      <dbl>     <dbl>     <dbl> <chr>      <dbl>
##  1  2000 01001 AUTAUGA     ALAB~      17208      4942     11993 <NA>          NA
##  2  2004 01001 AUTAUGA     ALAB~      20081      4758     15196 <NA>          NA
##  3  2000 01003 BALDWIN     ALAB~      56480     13997     40872 <NA>          NA
##  4  2004 01003 BALDWIN     ALAB~      69320     15599     52971 <NA>          NA
##  5  2000 01005 BARBOUR     ALAB~      10395      5188      5096 <NA>          NA
##  6  2004 01005 BARBOUR     ALAB~      10777      4832      5899 <NA>          NA
##  7  2000 01007 BIBB        ALAB~       7101      2710      4273 <NA>          NA
##  8  2004 01007 BIBB        ALAB~       7600      2089      5472 <NA>          NA
##  9  2000 01009 BLOUNT      ALAB~      17973      4977     12667 <NA>          NA
## 10  2004 01009 BLOUNT      ALAB~      21504      3938     17386 <NA>          NA
## # i 6,457 more rows

unique(voting_info_df_NAs$year)

## [1] 2000 2004 2008 2012 2020 2016

voting_info_df <- voting_info_df %>% 
  filter(year >= 2008)

voting_info_df_NAs2 <- voting_info_df %>% 
  filter(is.na(geoname), is.na(cvap_est))

voting_info_df_NAs2

## # A tibble: 158 x 9
##     year FIPS  county_name state totalvotes votes_dem votes_gop geoname cvap_est
##    <dbl> <chr> <chr>       <chr>      <dbl>     <dbl>     <dbl> <chr>      <dbl>
##  1  2008 02001 DISTRICT 1  ALAS~       6970      2597      4149 <NA>          NA
##  2  2012 02001 DISTRICT 1  ALAS~       7722      1518      5899 <NA>          NA
##  3  2020 02001 DISTRICT 1  ALAS~       7314      3477      3511 <NA>          NA
##  4  2016 02001 DISTRICT 1  ALAS~       6638      2573      3180 <NA>          NA
##  5  2008 02002 DISTRICT 2  ALAS~       7735      3468      4029 <NA>          NA
##  6  2012 02002 DISTRICT 2  ALAS~       9058      3096      5509 <NA>          NA
##  7  2020 02002 DISTRICT 2  ALAS~       6136      2104      3674 <NA>          NA
##  8  2016 02002 DISTRICT 2  ALAS~       5492      1585      3188 <NA>          NA
##  9  2008 02003 DISTRICT 3  ALAS~       8767      5657      2829 <NA>          NA
## 10  2012 02003 DISTRICT 3  ALAS~       6069      2034      3769 <NA>          NA
## # i 148 more rows
…
summary(voting_info_final$voter_turnout)

##    Min. 1st Qu.  Median    Mean 3rd Qu.    Max. 
##  0.1689  0.5426  0.6099  0.6099  0.6746  2.1556

turnout_over_1_df <- voting_info_final %>%
  filter(voter_turnout > 1) %>%
  select(FIPS, county_name, state, year, voter_turnout, totalvotes, cvap_est) %>%
  arrange(FIPS, year)

turnout_over_1_df

## # A tibble: 25 x 7
##    FIPS  county_name  state       year voter_turnout totalvotes cvap_est
##    <chr> <chr>        <chr>      <dbl>         <dbl>      <dbl>    <dbl>
##  1 08053 HINSDALE     COLORADO    2008          1.35        599      445
##  2 08079 MINERAL      COLORADO    2020          1.10        756      685
##  3 08111 SAN JUAN     COLORADO    2016          1.07        506      475
##  4 16025 CAMAS        IDAHO       2020          1.04        754      725
##  5 30033 GARFIELD     MONTANA     2020          1.07        813      760
##  6 30075 POWDER RIVER MONTANA     2008          1.11       1404     1265
##  7 31009 BLAINE       NEBRASKA    2020          1.06        317      300
##  8 35021 HARDING      NEW MEXICO  2008          1.06        626      590
##  9 35021 HARDING      NEW MEXICO  2012          1.10        601      545
## 10 35021 HARDING      NEW MEXICO  2016          1.35        527      390
## # i 15 more rows
…
After cleaning, our dataset includes election data by county for 49 states and the District of Columbia for elections since 2008.

voting_info_final_pivot %>% 
  group_by(state) %>% 
  summarise(count = n()) %>% 
  arrange(desc(count))

## # A tibble: 50 x 2
##    state          count
##    <chr>          <int>
##  1 Texas            254
##  2 Georgia          159
##  3 Virginia         133
##  4 Kentucky         120
##  5 Missouri         115
##  6 Kansas           105
##  7 Illinois         102
##  8 North Carolina   100
##  9 Iowa              99
## 10 Tennessee         95
## # i 40 more rows
…
